<svg width="11" height="18" viewBox="0 0 11 18" fill="none" xmlns="http://www.w3.org/2000/svg">
<path d="M9.93044 9.54295L1.57094 17.5079C1.43145 17.6409 1.24614 17.7151 1.05344 17.7151C0.860729 17.7151 0.675419 17.6409 0.535936 17.5079L0.526936 17.4989C0.459083 17.4345 0.405053 17.3569 0.368133 17.2709C0.331212 17.1849 0.312173 17.0923 0.312173 16.9987C0.312173 16.9051 0.331212 16.8125 0.368133 16.7265C0.405053 16.6405 0.459083 16.5629 0.526936 16.4984L8.39894 8.99844L0.526935 1.50145C0.459082 1.43699 0.405052 1.3594 0.368132 1.2734C0.331211 1.1874 0.312172 1.09479 0.312172 1.0012C0.312172 0.907607 0.331211 0.814995 0.368132 0.728997C0.405052 0.642996 0.459082 0.565407 0.526935 0.500946L0.535936 0.491946C0.675418 0.358979 0.860728 0.284802 1.05343 0.284802C1.24614 0.284802 1.43145 0.358979 1.57093 0.491946L9.93044 8.45695C10.004 8.52699 10.0625 8.61124 10.1025 8.70458C10.1425 8.79791 10.1631 8.8984 10.1631 8.99995C10.1631 9.10149 10.1425 9.20198 10.1025 9.29532C10.0625 9.38865 10.004 9.4729 9.93044 9.54295Z" fill="black"/>
</svg>
