<svg width="21" height="19" viewBox="0 0 21 19" fill="none" xmlns="http://www.w3.org/2000/svg">
<path d="M13.3327 3.14153C13.3327 4.75112 10.4183 9.51682 10.4183 9.51682C10.4183 9.51682 7.50391 4.75112 7.50391 3.14153C7.50391 1.53195 9.50757 -0.683639 10.4183 0.22712C11.3291 -0.683648 13.3327 1.53195 13.3327 3.14153Z" fill="#D9D9D9"/>
<path d="M17.3166 10.03C15.8045 10.5815 10.3286 9.4765 10.3286 9.4765C10.3286 9.4765 13.8072 5.10554 15.3193 4.55401C16.8315 4.00248 19.5995 5.12566 19.056 6.29335C20.2237 6.8369 18.8288 9.47844 17.3166 10.03Z" fill="#D9D9D9"/>
<path d="M3.41288 9.9884C4.92502 10.5399 10.4008 9.43493 10.4008 9.43493C10.4008 9.43493 6.92229 5.06397 5.41015 4.51244C3.898 3.96091 1.12998 5.0841 1.67353 6.25179C0.505826 6.79533 1.90073 9.43687 3.41288 9.9884Z" fill="#D9D9D9"/>
<path d="M8.20838 16.0359C9.31645 14.8684 10.4834 9.40546 10.4834 9.40546C10.4834 9.40546 5.08874 10.8557 3.98066 12.0232C2.87259 13.1906 2.80061 16.177 4.08818 16.1434C4.12177 17.431 7.10031 17.2033 8.20838 16.0359Z" fill="#D9D9D9"/>
<path d="M12.6354 16.0359C11.5273 14.8684 10.3604 9.40546 10.3604 9.40546C10.3604 9.40546 15.755 10.8557 16.8631 12.0232C17.9712 13.1906 18.0431 16.177 16.7556 16.1434C16.722 17.431 13.7434 17.2033 12.6354 16.0359Z" fill="#D9D9D9"/>
</svg>
