"ID", "Fortune Teller", "Area", "Shop", "Shop Status", "Teller Status"
"92", "カメウラ　コウセイ", "福岡", "福岡の四柱推命と手相鑑定 亀占", "Published", "Published"
"90", "アイザワユウタ", "関東", "電話占い WILL", "Published", "Draft"
"91", "シマブクロチズコ", "沖縄県", "THIDA OKINAWA", "Published", "Published"
"84", "エマ", "福岡", "占い博多の母", "Published", "Published"
"685", "スヒ", "大阪", "占いルームグラスハープ", "Published", "Draft"
"261", "オオツカ　ジュスイ", "香川", "占いの館　東明館", "Published", "Published"
"262", "カシワラ ユキエ", "香川", "占いの館　東明館", "Published", "Published"
"263", "イズミサキ アキコ", "香川", "占いの館　東明館", "Published", "Published"
"428", "カナ", "神奈川", "占い館「沙羅双樹」", "Published", "Published"
"571", "ジン　セイウン", "神奈川", "占い 華陽園", "Published", "Published"
"572", "イチノセミズキ", "神奈川", "占い 華陽園", "Published", "Published"
"573", "コウヅテルオ", "神奈川", "占い 華陽園", "Published", "Published"
"574", "ショウコ", "神奈川", "占い 華陽園", "Published", "Published"
"575", "アオイワカ", "神奈川", "占い 華陽園", "Published", "Published"
"576", "ミチコ", "神奈川", "占い 華陽園", "Published", "Published"
"577", "ジュンコ", "神奈川", "占い 華陽園", "Published", "Published"
"578", "シオリ", "神奈川", "占い 華陽園", "Published", "Published"
"579", "ゲンヨウ", "神奈川", "占い 華陽園", "Published", "Published"
"580", "クレナイアヤカ", "神奈川", "占い 華陽園", "Published", "Published"
"581", "イナバレイア", "神奈川", "占い 華陽園", "Published", "Published"
"241", "トノオカ　アキコ", "神奈川", "占いの店・東明館", "Published", "Published"
"260", "スタ～ライト ハヤシ", "神奈川", "占いの店・東明館", "Published", "Published"
"301", "マカレン", "神奈川", "横浜中華街　占い館　愛梨", "Published", "Published"
"302", "サトコ", "神奈川", "横浜中華街　占い館　愛梨", "Published", "Published"
"303", "ムラカミ　シノ", "神奈川", "横浜中華街　占い館　愛梨", "Published", "Published"
"304", "ホウシ", "神奈川", "横浜中華街　占い館　愛梨", "Published", "Published"
"305", "マヤ", "神奈川", "横浜中華街　占い館　愛梨", "Published", "Published"
"306", "バンショウコ", "神奈川", "横浜中華街　占い館　愛梨", "Published", "Published"
"307", "ヒナタ", "神奈川", "横浜中華街　占い館　愛梨", "Published", "Published"
"308", "アレイナ", "神奈川", "横浜中華街　占い館　愛梨", "Published", "Published"
"309", "ジャスミ～ン", "神奈川", "横浜中華街　占い館　愛梨", "Published", "Published"
"311", "カノン", "神奈川", "横浜中華街　占い館　愛梨", "Published", "Published"
"312", "ミキ", "神奈川", "横浜中華街　占い館　愛梨", "Published", "Published"
"313", "メイ", "神奈川", "横浜中華街　占い館　愛梨", "Published", "Published"
"314", "マユ", "神奈川", "横浜中華街　占い館　愛梨", "Published", "Published"
"315", "ジョマ", "神奈川", "横浜中華街　占い館　愛梨", "Published", "Published"
"316", "ホウカミミコ", "神奈川", "横浜中華街　占い館　愛梨", "Published", "Published"
"317", "サユ", "神奈川", "横浜中華街　占い館　愛梨", "Published", "Published"
"318", "エリー", "神奈川", "横浜中華街　占い館　愛梨", "Published", "Published"
"322", "アサヒ", "神奈川", "横浜中華街　占い館　愛梨", "Published", "Published"
"323", "ヒグチシセキ", "神奈川", "横浜中華街　占い館　愛梨", "Published", "Published"
"324", "ジュリ", "神奈川", "横浜中華街　占い館　愛梨", "Published", "Published"
"325", "ミズキカズエ", "神奈川", "横浜中華街　占い館　愛梨", "Published", "Published"
"326", "タカミコウセイ", "神奈川", "横浜中華街　占い館　愛梨", "Published", "Published"
"327", "マツミ", "神奈川", "横浜中華街　占い館　愛梨", "Published", "Published"
"328", "ナガセコウフウ", "神奈川", "横浜中華街　占い館　愛梨", "Published", "Published"
"329", "ジュエリー", "神奈川", "横浜中華街　占い館　愛梨", "Published", "Published"
"331", "テンケイアン", "神奈川", "横浜中華街　占い館　愛梨", "Published", "Published"
"332", "ルリ", "神奈川", "横浜中華街　占い館　愛梨", "Published", "Published"
"334", "ワカ", "神奈川", "横浜中華街　占い館　愛梨", "Published", "Published"
"337", "タニグチケイショウ", "神奈川", "横浜中華街　占い館　愛梨", "Published", "Published"
"338", "マリ", "神奈川", "横浜中華街　占い館　愛梨", "Published", "Published"
"341", "サナ", "神奈川", "横浜中華街　占い館　愛梨", "Published", "Published"
"343", "チャイ", "神奈川", "横浜中華街　占い館　愛梨", "Published", "Published"
"344", "アオキケイコ", "神奈川", "横浜中華街　占い館　愛梨", "Published", "Published"
"345", "キサラギ", "神奈川", "横浜中華街　占い館　愛梨", "Published", "Published"
"347", "ヤマクチ", "神奈川", "横浜中華街　占い館　愛梨", "Published", "Published"
"351", "カレン", "神奈川", "横浜中華街　占い館　愛梨", "Published", "Published"
"355", "ユウヒロ", "神奈川", "横浜中華街　占い館　愛梨", "Published", "Published"
"356", "クレア", "神奈川", "横浜中華街　占い館　愛梨", "Published", "Published"
"358", "キアラ", "神奈川", "横浜中華街　占い館　愛梨", "Published", "Published"
"359", "キアラ", "神奈川", "横浜中華街　占い館　愛梨", "Published", "Draft"
"360", "キアラ", "神奈川", "横浜中華街　占い館　愛梨", "Published", "Draft"
"361", "キアラ", "神奈川", "横浜中華街　占い館　愛梨", "Published", "Draft"
"362", "キアラ", "神奈川", "横浜中華街　占い館　愛梨", "Published", "Draft"
"363", "キアラ", "神奈川", "横浜中華街　占い館　愛梨", "Published", "Draft"
"364", "キアラ", "神奈川", "横浜中華街　占い館　愛梨", "Published", "Draft"
"365", "キアラ", "神奈川", "横浜中華街　占い館　愛梨", "Published", "Draft"
"366", "キアラ", "神奈川", "横浜中華街　占い館　愛梨", "Published", "Draft"
"367", "キアラ", "神奈川", "横浜中華街　占い館　愛梨", "Published", "Draft"
"368", "タカナシアリサ", "神奈川", "横浜中華街　占い館　愛梨", "Published", "Published"
"369", "ウキョウ", "神奈川", "横浜中華街　占い館　愛梨", "Published", "Published"
"370", "ホシヨミヤ", "神奈川", "横浜中華街　占い館　愛梨", "Published", "Published"
"371", "レンカ", "神奈川", "横浜中華街　占い館　愛梨", "Published", "Published"
"372", "ツユキ", "神奈川", "横浜中華街　占い館　愛梨", "Published", "Published"
"387", "レイ", "神奈川", "横浜中華街　占い館　愛梨", "Published", "Published"
"388", "ツキノスピカ", "神奈川", "横浜中華街　占い館　愛梨", "Published", "Published"
"389", "モエカ", "神奈川", "横浜中華街　占い館　愛梨", "Published", "Published"
"390", "モエカ", "神奈川", "横浜中華街　占い館　愛梨", "Published", "Draft"
"391", "モエカ", "神奈川", "横浜中華街　占い館　愛梨", "Published", "Draft"
"392", "モエカ", "神奈川", "横浜中華街　占い館　愛梨", "Published", "Draft"
"393", "モエカ", "神奈川", "横浜中華街　占い館　愛梨", "Published", "Draft"
"394", "モエカ", "神奈川", "横浜中華街　占い館　愛梨", "Published", "Draft"
"395", "モエカ", "神奈川", "横浜中華街　占い館　愛梨", "Published", "Draft"
"396", "モエカ", "神奈川", "横浜中華街　占い館　愛梨", "Published", "Draft"
"397", "オチ", "神奈川", "横浜中華街　占い館　愛梨", "Published", "Published"
"398", "アニータ", "神奈川", "横浜中華街　占い館　愛梨", "Published", "Published"
"399", "タマエ", "神奈川", "横浜中華街　占い館　愛梨", "Published", "Published"
"400", "セイラン", "神奈川", "横浜中華街　占い館　愛梨", "Published", "Published"
"401", "エサ", "神奈川", "横浜中華街　占い館　愛梨", "Published", "Published"
"402", "ミレイ", "神奈川", "横浜中華街　占い館　愛梨", "Published", "Published"
"403", "フミリ", "神奈川", "横浜中華街　占い館　愛梨", "Published", "Published"
"404", "チサト", "神奈川", "横浜中華街　占い館　愛梨", "Published", "Published"
"405", "カオリ", "神奈川", "横浜中華街　占い館　愛梨", "Published", "Published"
"406", "ステラ", "神奈川", "横浜中華街　占い館　愛梨", "Published", "Published"
"407", "エリカ", "神奈川", "横浜中華街　占い館　愛梨", "Published", "Published"
"408", "ティアラ", "神奈川", "横浜中華街　占い館　愛梨", "Published", "Published"
"409", "ミー", "神奈川", "横浜中華街　占い館　愛梨", "Published", "Published"
"410", "ヴェガ", "神奈川", "横浜中華街　占い館　愛梨", "Published", "Published"
"411", "エレミア", "神奈川", "横浜中華街　占い館　愛梨", "Published", "Published"
"412", "エレミア", "神奈川", "横浜中華街　占い館　愛梨", "Published", "Draft"
"413", "フヨウ", "神奈川", "横浜中華街　占い館　愛梨", "Published", "Published"
"414", "タマイ", "神奈川", "横浜中華街　占い館　愛梨", "Published", "Published"
"415", "ホウリ", "神奈川", "横浜中華街　占い館　愛梨", "Published", "Published"
"116", "リサ", "兵庫", "神戸占い館アゥルターム", "Published", "Published"
"420", "オウキ イクリ", "神奈川", "沙羅双樹", "Published", "Published"
"421", "エテルナサトウ", "神奈川", "沙羅双樹", "Published", "Published"
"424", "ミョウレン", "神奈川", "沙羅双樹", "Published", "Published"
"425", "アカシャ", "神奈川", "沙羅双樹", "Published", "Published"
"439", "ユキナカ シヅキ", "神奈川", "沙羅双樹", "Published", "Draft"
"440", "シノミヤマイ", "神奈川", "沙羅双樹", "Published", "Draft"
"441", "タケスミ", "神奈川", "沙羅双樹", "Published", "Draft"
"442", "ドリ", "神奈川", "沙羅双樹", "Published", "Draft"
"349", "マスター", "関東", "フォーチュンBAR　タロット", "Published", "Published"
"350", "シマテンチョウ", "関東", "フォーチュンBAR　タロット", "Published", "Published"
"352", "みづき", "関東", "フォーチュンBAR　タロット", "Published", "Published"
"354", "コージ", "関東", "フォーチュンBAR　タロット", "Published", "Published"
"463", "ルネ・ヴァン・ダール・ワタナベ", "関東", "ルネ・ヴァン・ダール研究所", "Published", "Draft"
"466", "モナ・カサンドラ", "関東", "ルネ・ヴァン・ダール研究所", "Published", "Draft"
"467", "ジョアンナ・リリス", "関東", "ルネ・ヴァン・ダール研究所", "Published", "Draft"
"468", "ツキカゲサオリ", "関東", "ルネ・ヴァン・ダール研究所", "Published", "Draft"
"469", "アイラ・アリス", "関東", "ルネ・ヴァン・ダール研究所", "Published", "Draft"
"470", "カガミヤ　モエ", "関東", "ルネ・ヴァン・ダール研究所", "Published", "Draft"
"471", "アサカゼ　カオル", "関東", "ルネ・ヴァン・ダール研究所", "Published", "Draft"
"472", "リトロ", "関東", "LITRO", "Published", "Draft"
"473", "オビナタ　ミウ", "関東", "新宿占いスペースSecret", "Published", "Draft"
"474", "ナヤ　マユミ", "関東", "新宿占いスペースSecret", "Published", "Draft"
"475", "マナ", "関東", "新宿占いスペースSecret", "Published", "Draft"
"476", "リリィ", "関東", "新宿占いスペースSecret", "Published", "Published"
"528", "アカツキ　ルナ", "関東", "原宿占い館塔里木TARIM", "Published", "Draft"
"530", "アサツキ　ミライ", "関東", "原宿占い館塔里木TARIM", "Published", "Draft"
"531", "アスカ　マホ", "関東", "原宿占い館塔里木TARIM", "Published", "Draft"
"532", "アメルギ　ヒスイ", "関東", "原宿占い館塔里木TARIM", "Published", "Draft"
"533", "アルジュナ", "関東", "原宿占い館塔里木TARIM", "Published", "Draft"
"534", "イツミ　アオ", "関東", "原宿占い館塔里木TARIM", "Published", "Draft"
"535", "イトウ　エイスケ", "関東", "原宿占い館塔里木TARIM", "Published", "Draft"
"536", "イヌヤマ　マヤ", "関東", "原宿占い館塔里木TARIM", "Published", "Draft"
"537", "ウヅキ　シルサ", "関東", "原宿占い館塔里木TARIM", "Published", "Draft"
"538", "エビスヤ　マシュ", "関東", "原宿占い館塔里木TARIM", "Published", "Draft"
"539", "エマ・エルミタージュ", "関東", "原宿占い館塔里木TARIM", "Published", "Draft"
"540", "キワ", "関東", "原宿占い館塔里木TARIM", "Published", "Draft"
"541", "クレナイ　ヒカル", "関東", "原宿占い館塔里木TARIM", "Published", "Draft"
"542", "クロエ", "関東", "原宿占い館塔里木TARIM", "Published", "Draft"
"543", "コカワ　ケイ", "関東", "原宿占い館塔里木TARIM", "Published", "Draft"
"544", "サクラ　シギョク", "関東", "原宿占い館塔里木TARIM", "Published", "Draft"
"545", "サクラダ　ケイ", "関東", "原宿占い館塔里木TARIM", "Published", "Draft"
"546", "サトウ　ソウゲン", "関東", "原宿占い館塔里木TARIM", "Published", "Draft"
"547", "ジョアン", "関東", "原宿占い館塔里木TARIM", "Published", "Draft"
"548", "セイコ", "関東", "原宿占い館塔里木TARIM", "Published", "Draft"
"549", "センジュ　ミヤコ", "関東", "原宿占い館塔里木TARIM", "Published", "Draft"
"550", "アオイデ アイ", "関東", "原宿占い館塔里木TARIM", "Published", "Draft"
"551", "アカシ　タマキ", "関東", "原宿占い館塔里木TARIM", "Published", "Draft"
"552", "アグニ", "関東", "原宿占い館塔里木TARIM", "Published", "Draft"
"553", "アサヒ　ミハル", "関東", "原宿占い館塔里木TARIM", "Published", "Draft"
"554", "アダムス・アンナ・マジョーリア", "関東", "原宿占い館塔里木TARIM", "Published", "Draft"
"555", "エン　セイシュウ", "関東", "原宿占い館塔里木TARIM", "Published", "Draft"
"556", "キタガワ　リュウザブロウ", "関東", "原宿占い館塔里木TARIM", "Published", "Draft"
"557", "クサカ　ユニ", "関東", "原宿占い館塔里木TARIM", "Published", "Draft"
"558", "クボタ　エツヨ", "関東", "原宿占い館塔里木TARIM", "Published", "Draft"
"559", "クリス", "関東", "原宿占い館塔里木TARIM", "Published", "Draft"
"560", "サヤカ", "関東", "原宿占い館塔里木TARIM", "Published", "Draft"
"561", "シオカ　アヅサ", "関東", "原宿占い館塔里木TARIM", "Published", "Draft"
"562", "シシン", "関東", "原宿占い館塔里木TARIM", "Published", "Draft"
"563", "ジュンシン", "関東", "原宿占い館塔里木TARIM", "Published", "Draft"
"564", "スズキ　カヤ", "関東", "原宿占い館塔里木TARIM", "Published", "Draft"
"642", "タチバナ　ミラノ", "関東", "原宿占い館塔里木TARIM", "Published", "Draft"
"643", "タツミ", "関東", "原宿占い館塔里木TARIM", "Published", "Draft"
"644", "ダイ", "関東", "原宿占い館塔里木TARIM", "Published", "Draft"
"645", "チノ", "関東", "原宿占い館塔里木TARIM", "Published", "Draft"
"646", "ディー　ナカガワ", "関東", "原宿占い館塔里木TARIM", "Published", "Draft"
"647", "ニシオカ　リオウ", "関東", "原宿占い館塔里木TARIM", "Published", "Draft"
"648", "ハツシマ　エリ", "関東", "原宿占い館塔里木TARIM", "Published", "Draft"
"649", "ハマノ　エンジュ", "関東", "原宿占い館塔里木TARIM", "Published", "Draft"
"650", "ヒエダ　オンマユラ", "関東", "原宿占い館塔里木TARIM", "Published", "Draft"
"651", "ヒムカ", "関東", "原宿占い館塔里木TARIM", "Published", "Draft"
"652", "ビギー・ネプテューン", "関東", "原宿占い館塔里木TARIM", "Published", "Draft"
"653", "プアラニ　ケイ", "関東", "原宿占い館塔里木TARIM", "Published", "Draft"
"654", "マオ　ユナ", "関東", "原宿占い館塔里木TARIM", "Published", "Draft"
"655", "マザーリーフ", "関東", "原宿占い館塔里木TARIM", "Published", "Draft"
"656", "マスカタ　カズマ", "関東", "原宿占い館塔里木TARIM", "Published", "Draft"
"658", "マトリ　ユキノ", "関東", "原宿占い館塔里木TARIM", "Published", "Draft"
"660", "マリカ", "関東", "原宿占い館塔里木TARIM", "Published", "Draft"
"662", "ミソノ　タマキ", "関東", "原宿占い館塔里木TARIM", "Published", "Draft"
"663", "ムカイ　マキ", "関東", "原宿占い館塔里木TARIM", "Published", "Draft"
"668", "モエナ　リサ", "関東", "原宿占い館塔里木TARIM", "Published", "Draft"
"669", "ヤガミ　トモカ", "関東", "原宿占い館塔里木TARIM", "Published", "Draft"
"670", "ヨウ　シヨウ", "関東", "原宿占い館塔里木TARIM", "Published", "Draft"
"671", "リュウノミヤ　ユリン", "関東", "原宿占い館塔里木TARIM", "Published", "Draft"
"672", "ルエナ　ヤヨイ", "関東", "原宿占い館塔里木TARIM", "Published", "Draft"
"673", "ルシエル", "関東", "原宿占い館塔里木TARIM", "Published", "Draft"
"674", "ルビー・エル", "関東", "原宿占い館塔里木TARIM", "Published", "Draft"
"675", "レイ", "関東", "原宿占い館塔里木TARIM", "Published", "Draft"
"676", "レイア", "関東", "原宿占い館塔里木TARIM", "Published", "Draft"
"569", "ヒイラギヒョウスケ", "神奈川", "横浜占い館　ツイーディア　Tweedia　伊勢佐木モール店", "Published", "Published"
"570", "ウエハラカオリ", "神奈川", "横浜占い館　ツイーディア　Tweedia　伊勢佐木モール店", "Published", "Published"
